Electricity Market Analysis
…
I would like to use the weekdays as Monday, Tuesday, Wednesday etc. so create another column that holds the days of week;

em_price <- em_price %>% mutate(day_name = weekdays(as.Date(em_price$Date)))

Price Analysis and Info Extraction

The data can be organized in a way that a person who is not familiar the concept of electricity pricing can easily understand. One might wonder what is the average price according to days and because there is a correlation between electricity prices and usage she might want to know difference between weekdays and the weekend. For that, we grouping the data and taking means of hourly prices by days.

em_price_dh2 <- em_price %>% select(Date, MCP., SMP., day_name) %>%
  group_by(hour = lubridate ::hour(Date), day_name) %>% summarise(mcp_hrly_price = mean(MCP.))

em_price_dh2

## # A tibble: 168 x 3
## # Groups:   hour [24]
##     hour day_name  mcp_hrly_price
##    <int> <chr>              <dbl>
##  1     0 Friday              292.
##  2     0 Monday              288.
##  3     0 Saturday            294.
##  4     0 Sunday              296.
##  5     0 Thursday            302.
##  6     0 Tuesday             302.
##  7     0 Wednesday           306.
##  8     1 Friday              305.
##  9     1 Monday              305.
## 10     1 Saturday            305.
## #  with 158 more rows
…
